%time,field.header.seq,field.header.stamp,field.header.frame_id,field.twist.linear.x,field.twist.linear.y,field.twist.linear.z,field.twist.angular.x,field.twist.angular.y,field.twist.angular.z
1352381478559371124,187,1352381478559371124,,0.0,0.1,0.0,0.0,0.0,0.0
1352381478711242167,188,1352381478711242167,,0.0,0.1,0.0,0.0,0.0,0.0
1352381478870945776,189,1352381478870945776,,0.0,0.1,0.0,0.0,0.0,0.0
1352381479814879224,190,1352381479814879224,,0.0,-0.1,0.0,0.0,0.0,0.0
1352381480260762849,191,1352381480260762849,,0.0,-0.1,0.0,0.0,0.0,0.0
1352381480542986591,192,1352381480542986591,,-0.1,0.0,0.0,0.0,0.0,0.0
1352381480843478857,193,1352381480843478857,,0.0,-0.1,0.0,0.0,0.0,0.0
1352381481319982479,194,1352381481319982479,,0.0,0.0,0.0,0.0,0.0,0.0
1352381481847965072,195,1352381481847965072,,0.0,0.1,0.0,0.0,0.0,0.0
1352381482300438182,196,1352381482300438182,,0.0,0.1,0.0,0.0,0.0,0.0
1352381482550942528,197,1352381482550942528,,0.0,-0.1,0.0,0.0,0.0,0.0
1352381483166993890,198,1352381483166993890,,0.0,0.1,0.0,0.0,0.0,0.0
1352381483342725979,199,1352381483342725979,,0.0,0.0,0.0,0.0,0.0,0.0
1352381484055190083,200,1352381484055190083,,0.0,0.1,0.0,0.0,0.0,0.0
1352381484589985100,201,1352381484589985100,,-0.1,0.0,0.0,0.0,0.0,0.0
1352381486206831258,202,1352381486206831258,,0.1,0.0,0.0,0.0,0.0,0.0
1352381486567449863,203,1352381486567449863,,0.0,0.0,0.0,0.0,0.0,0.0
1352381487198945047,204,1352381487198945047,,0.0,0.0,0.0,0.0,0.0,0.0
1352381488743045642,205,1352381488743045642,,0.0,-0.1,0.0,0.0,0.0,0.0
1352381488998921846,206,1352381488998921846,,0.0,0.0,0.0,0.0,0.0,0.0
1352381490302672574,207,1352381490302672574,,0.0,0.0,0.0,0.0,0.0,0.0
1352381491294998996,208,1352381491294998996,,0.0,0.0,0.0,0.0,0.0,0.0
1352381491703211542,209,1352381491703211542,,0.0,-0.1,0.0,0.0,0.0,0.0
1352381492294907660,210,1352381492294907660,,-0.1,0.0,0.0,0.0,0.0,0.0
1352381492919058301,211,1352381492919058301,,0.0,-0.1,0.0,0.0,0.0,0.0
1352381494004620433,212,1352381494004620433,,-0.1,0.0,0.0,0.0,0.0,0.0
1352381494159886099,213,1352381494159886099,,0.0,0.1,0.0,0.0,0.0,0.0
1352381494462938234,214,1352381494462938234,,0.0,0.1,0.0,0.0,0.0,0.0
1352381494726856172,215,1352381494726856172,,0.0,0.1,0.0,0.0,0.0,0.0
1352381494952045836,216,1352381494952045836,,0.0,0.1,0.0,0.0,0.0,0.0
1352381495168818283,217,1352381495168818283,,-0.1,0.0,0.0,0.0,0.0,0.0
1352381495564654531,218,1352381495564654531,,0.0,0.1,0.0,0.0,0.0,0.0
1352381495934507345,219,1352381495934507345,,0.0,0.0,0.0,0.0,0.0,0.0
1352381496255185710,220,1352381496255185710,,0.0,-0.1,0.0,0.0,0.0,0.0
1352381496526717920,221,1352381496526717920,,0.0,0.0,0.0,0.0,0.0,0.0
1352381497062934535,222,1352381497062934535,,0.0,0.0,0.0,0.0,0.0,0.0
1352381499486891782,223,1352381499486891782,,0.0,-0.1,0.0,0.0,0.0,0.0
1352381499670752922,224,1352381499670752922,,-0.1,0.0,0.0,0.0,0.0,0.0
1352381500254992472,225,1352381500254992472,,0.0,-0.1,0.0,0.0,0.0,0.0
1352381501023370011,226,1352381501023370011,,-0.1,0.0,0.0,0.0,0.0,0.0
1352381501142820949,227,1352381501142820949,,0.0,0.1,0.0,0.0,0.0,0.0
1352381501621019154,228,1352381501621019154,,0.1,0.0,0.0,0.0,0.0,0.0
1352381502047552759,229,1352381502047552759,,-0.1,0.0,0.0,0.0,0.0,0.0
1352381502366526068,230,1352381502366526068,,0.0,0.0,0.0,0.0,0.0,0.0
1352381503006986393,231,1352381503006986393,,0.0,-0.1,0.0,0.0,0.0,0.0
1352381503270511797,232,1352381503270511797,,0.0,0.0,0.0,0.0,0.0,0.0
1352381504079091376,233,1352381504079091376,,0.0,0.0,0.0,0.0,0.0,0.0
1352381506023452519,234,1352381506023452519,,0.0,0.0,0.0,0.0,0.0,0.0
1352381507243703180,235,1352381507243703180,,-0.1,0.0,0.0,0.0,0.0,0.0
1352381507552775422,236,1352381507552775422,,0.0,-0.1,0.0,0.0,0.0,0.0
1352381507774991986,237,1352381507774991986,,0.0,-0.1,0.0,0.0,0.0,0.0
1352381508215133525,238,1352381508215133525,,0.0,-0.1,0.0,0.0,0.0,0.0
1352381508697575105,239,1352381508697575105,,-0.1,0.0,0.0,0.0,0.0,0.0
1352381509064100758,240,1352381509064100758,,0.0,-0.1,0.0,0.0,0.0,0.0
1352381510376206575,241,1352381510376206575,,0.0,0.1,0.0,0.0,0.0,0.0
1352381510544293018,242,1352381510544293018,,0.0,0.0,0.0,0.0,0.0,0.0
1352381510838868260,243,1352381510838868260,,-0.1,0.0,0.0,0.0,0.0,0.0
1352381511216723659,244,1352381511216723659,,0.0,0.0,0.0,0.0,0.0,0.0
1352381511831708319,245,1352381511831708319,,0.0,0.0,0.0,0.0,0.0,0.0
1352381513646826276,246,1352381513646826276,,0.0,0.0,0.0,0.0,0.0,0.0
1352381515455153093,247,1352381515455153093,,0.0,-0.1,0.0,0.0,0.0,0.0
1352381515727030999,248,1352381515727030999,,-0.1,0.0,0.0,0.0,0.0,0.0
1352381516078775014,249,1352381516078775014,,-0.1,0.0,0.0,0.0,0.0,0.0
1352381516506394484,250,1352381516506394484,,0.0,-0.1,0.0,0.0,0.0,0.0
1352381517431007649,251,1352381517431007649,,-0.1,0.0,0.0,0.0,0.0,0.0
1352381517662666521,252,1352381517662666521,,0.0,0.1,0.0,0.0,0.0,0.0
1352381518222939304,253,1352381518222939304,,-0.1,0.0,0.0,0.0,0.0,0.0
1352381518926636210,254,1352381518926636210,,0.1,0.0,0.0,0.0,0.0,0.0
1352381519193403950,255,1352381519193403950,,0.0,0.0,0.0,0.0,0.0,0.0
1352381520590882752,256,1352381520590882752,,0.0,-0.1,0.0,0.0,0.0,0.0
1352381520844930227,257,1352381520844930227,,0.0,0.0,0.0,0.0,0.0,0.0
1352381521290572232,258,1352381521290572232,,0.0,0.0,0.0,0.0,0.0,0.0
1352381523036495327,259,1352381523036495327,,0.0,0.0,0.0,0.0,0.0,0.0
1352381524630576028,260,1352381524630576028,,0.0,0.0,0.0,0.0,0.0,0.0
1352381526527630570,261,1352381526527630570,,0.0,-0.1,0.0,0.0,0.0,0.0
1352381528335015740,262,1352381528335015740,,-0.1,0.0,0.0,0.0,0.0,0.0
1352381528700325708,263,1352381528700325708,,0.0,0.0,0.0,0.0,0.0,0.0
1352381529460993987,264,1352381529460993987,,0.0,0.0,0.0,0.0,0.0,0.0
1352381533174638621,265,1352381533174638621,,0.0,0.0,0.0,0.0,0.0,0.0
1352381535072821090,266,1352381535072821090,,0.0,-0.1,0.0,0.0,0.0,0.0
1352381535358901167,267,1352381535358901167,,0.0,-0.1,0.0,0.0,0.0,0.0
1352381535539033844,268,1352381535539033844,,0.0,-0.1,0.0,0.0,0.0,0.0
1352381537046693794,269,1352381537046693794,,-0.1,0.0,0.0,0.0,0.0,0.0
1352381537430848851,270,1352381537430848851,,0.0,0.1,0.0,0.0,0.0,0.0
1352381537870510135,271,1352381537870510135,,0.0,0.0,0.0,0.0,0.0,0.0
1352381538486304927,272,1352381538486304927,,0.0,0.0,0.0,0.0,0.0,0.0
1352381541527023458,273,1352381541527023458,,0.0,0.0,0.0,0.0,0.0,0.0
1352381543638952175,274,1352381543638952175,,0.0,-0.1,0.0,0.0,0.0,0.0
1352381544078431119,275,1352381544078431119,,0.0,-0.1,0.0,0.0,0.0,0.0
1352381545069293508,276,1352381545069293508,,0.0,0.0,0.0,0.0,0.0,0.0
1352381546846859388,277,1352381546846859388,,0.0,-0.1,0.0,0.0,0.0,0.0
1352381547054827524,278,1352381547054827524,,0.0,-0.1,0.0,0.0,0.0,0.0
1352381547238730996,279,1352381547238730996,,0.0,-0.1,0.0,0.0,0.0,0.0
1352381547494549069,280,1352381547494549069,,0.0,-0.1,0.0,0.0,0.0,0.0
1352381548720293381,281,1352381548720293381,,0.0,0.1,0.0,0.0,0.0,0.0
1352381548958647113,282,1352381548958647113,,0.0,0.0,0.0,0.0,0.0,0.0
1352381549248056021,283,1352381549248056021,,0.0,-0.1,0.0,0.0,0.0,0.0
1352381549630416367,284,1352381549630416367,,0.0,0.0,0.0,0.0,0.0,0.0
1352381550070460925,285,1352381550070460925,,0.0,0.0,0.0,0.0,0.0,0.0
1352381551214507232,286,1352381551214507232,,0.0,-0.1,0.0,0.0,0.0,0.0
1352381551446539629,287,1352381551446539629,,0.0,-0.1,0.0,0.0,0.0,0.0
1352381551790506002,288,1352381551790506002,,0.0,-0.1,0.0,0.0,0.0,0.0
1352381553464554109,289,1352381553464554109,,0.0,0.1,0.0,0.0,0.0,0.0
1352381553710614612,290,1352381553710614612,,0.0,0.0,0.0,0.0,0.0,0.0
1352381554316089154,291,1352381554316089154,,0.0,0.0,0.0,0.0,0.0,0.0
1352381556350926835,292,1352381556350926835,,0.0,0.0,0.0,0.0,0.0,0.0
1352381557793553613,293,1352381557793553613,,0.0,0.0,0.0,0.0,0.0,0.0
1352381558318896758,294,1352381558318896758,,0.0,-0.1,0.0,0.0,0.0,0.0
1352381558470328580,295,1352381558470328580,,0.0,-0.1,0.0,0.0,0.0,0.0
1352381558632101655,296,1352381558632101655,,0.0,-0.1,0.0,0.0,0.0,0.0
1352381558807958541,297,1352381558807958541,,0.0,-0.1,0.0,0.0,0.0,0.0
1352381559158670496,298,1352381559158670496,,0.0,-0.1,0.0,0.0,0.0,0.0
1352381559398345763,299,1352381559398345763,,0.0,-0.1,0.0,0.0,0.0,0.0
1352381560097491871,300,1352381560097491871,,0.0,0.0,0.0,0.0,0.0,0.0
1352381561318151031,301,1352381561318151031,,0.0,0.0,0.0,0.0,0.0,0.0
1352381564834464804,302,1352381564834464804,,0.0,-0.1,0.0,0.0,0.0,0.0
1352381565182263946,303,1352381565182263946,,0.0,0.0,0.0,0.0,0.0,0.0
1352381565873190796,304,1352381565873190796,,0.0,-0.1,0.0,0.0,0.0,0.0
1352381566223689541,305,1352381566223689541,,0.0,-0.1,0.0,0.0,0.0,0.0
1352381566774236827,306,1352381566774236827,,0.0,0.0,0.0,0.0,0.0,0.0
1352381568054718717,307,1352381568054718717,,0.0,-0.1,0.0,0.0,0.0,0.0
1352381568358423135,308,1352381568358423135,,0.1,0.0,0.0,0.0,0.0,0.0
1352381568681446682,309,1352381568681446682,,0.0,-0.1,0.0,0.0,0.0,0.0
1352381569006456045,310,1352381569006456045,,0.0,-0.1,0.0,0.0,0.0,0.0
1352381569302473683,311,1352381569302473683,,0.1,0.0,0.0,0.0,0.0,0.0
1352381570038472495,312,1352381570038472495,,0.0,-0.1,0.0,0.0,0.0,0.0
1352381570430611209,313,1352381570430611209,,0.0,-0.1,0.0,0.0,0.0,0.0
1352381570870250717,314,1352381570870250717,,0.0,0.0,0.0,0.0,0.0,0.0
1352381571398472779,315,1352381571398472779,,0.0,0.0,0.0,0.0,0.0,0.0
1352381571686327270,316,1352381571686327270,,0.0,-0.1,0.0,0.0,0.0,0.0
1352381571866523972,317,1352381571866523972,,0.0,-0.1,0.0,0.0,0.0,0.0
1352381572022400186,318,1352381572022400186,,0.0,-0.1,0.0,0.0,0.0,0.0
1352381572203512804,319,1352381572203512804,,0.0,-0.1,0.0,0.0,0.0,0.0
1352381572374392238,320,1352381572374392238,,0.0,-0.1,0.0,0.0,0.0,0.0
1352381572614353878,321,1352381572614353878,,0.0,-0.1,0.0,0.0,0.0,0.0
1352381572825527232,322,1352381572825527232,,0.0,-0.1,0.0,0.0,0.0,0.0
1352381573278087142,323,1352381573278087142,,0.0,0.0,0.0,0.0,0.0,0.0
1352381574190212363,324,1352381574190212363,,0.0,0.0,0.0,0.0,0.0,0.0
1352381576014188428,325,1352381576014188428,,0.0,0.0,0.0,0.0,0.0,0.0
1352381577902680963,326,1352381577902680963,,0.0,-0.1,0.0,0.0,0.0,0.0
1352381578686517728,327,1352381578686517728,,0.0,0.0,0.0,0.0,0.0,0.0
1352381579278207542,328,1352381579278207542,,0.0,0.0,0.0,0.0,0.0,0.0
1352381581102487431,329,1352381581102487431,,0.0,-0.1,0.0,0.0,0.0,0.0
1352381581262226631,330,1352381581262226631,,0.0,-0.1,0.0,0.0,0.0,0.0
1352381581422227330,331,1352381581422227330,,0.0,-0.1,0.0,0.0,0.0,0.0
1352381581608493771,332,1352381581608493771,,0.0,-0.1,0.0,0.0,0.0,0.0
1352381583543214078,333,1352381583543214078,,0.0,0.0,0.0,0.0,0.0,0.0
1352381584489957713,334,1352381584489957713,,0.0,0.0,0.0,0.0,0.0,0.0
1352381585830774568,335,1352381585830774568,,0.0,0.0,0.0,0.0,0.0,0.0
1352381587310135981,336,1352381587310135981,,0.0,0.0,0.0,0.0,0.0,0.0
1352381587617581940,337,1352381587617581940,,0.0,-0.1,0.0,0.0,0.0,0.0
1352381587760941200,338,1352381587760941200,,0.0,-0.1,0.0,0.0,0.0,0.0
1352381587926230245,339,1352381587926230245,,0.0,-0.1,0.0,0.0,0.0,0.0
1352381588120550405,340,1352381588120550405,,0.0,-0.1,0.0,0.0,0.0,0.0
1352381589702242354,341,1352381589702242354,,0.0,0.1,0.0,0.0,0.0,0.0
1352381590023251025,342,1352381590023251025,,0.1,0.0,0.0,0.0,0.0,0.0
1352381590766190825,343,1352381590766190825,,0.0,0.0,0.0,0.0,0.0,0.0
1352381591102352223,344,1352381591102352223,,0.0,-0.1,0.0,0.0,0.0,0.0
1352381591511990215,345,1352381591511990215,,0.0,0.0,0.0,0.0,0.0,0.0
1352381591990179109,346,1352381591990179109,,0.0,0.0,0.0,0.0,0.0,0.0
1352381592974332866,347,1352381592974332866,,0.0,-0.1,0.0,0.0,0.0,0.0
1352381593150772372,348,1352381593150772372,,0.0,-0.1,0.0,0.0,0.0,0.0
1352381593325519502,349,1352381593325519502,,0.0,-0.1,0.0,0.0,0.0,0.0
1352381593605933310,350,1352381593605933310,,0.0,0.0,0.0,0.0,0.0,0.0
1352381594230067049,351,1352381594230067049,,0.0,0.0,0.0,0.0,0.0,0.0
1352381594558287347,352,1352381594558287347,,0.0,-0.1,0.0,0.0,0.0,0.0
1352381594720429800,353,1352381594720429800,,0.0,-0.1,0.0,0.0,0.0,0.0
1352381594872354054,354,1352381594872354054,,0.0,-0.1,0.0,0.0,0.0,0.0
1352381595038104612,355,1352381595038104612,,0.0,-0.1,0.0,0.0,0.0,0.0
1352381595709986624,356,1352381595709986624,,0.0,0.0,0.0,0.0,0.0,0.0
1352381596014170970,357,1352381596014170970,,0.0,0.1,0.0,0.0,0.0,0.0
1352381596422004290,358,1352381596422004290,,0.0,0.0,0.0,0.0,0.0,0.0
1352381598117979971,359,1352381598117979971,,0.0,0.0,0.0,0.0,0.0,0.0
1352381599477979648,360,1352381599477979648,,0.0,0.0,0.0,0.0,0.0,0.0
1352381600438034754,361,1352381600438034754,,0.0,0.0,0.0,0.0,0.0,0.0
1352381600622091855,362,1352381600622091855,,0.0,-0.1,0.0,0.0,0.0,0.0
1352381600818351110,363,1352381600818351110,,0.0,-0.1,0.0,0.0,0.0,0.0
1352381601010481973,364,1352381601010481973,,0.0,-0.1,0.0,0.0,0.0,0.0
1352381601342108017,365,1352381601342108017,,0.0,0.0,0.0,0.0,0.0,0.0
1352381602070164519,366,1352381602070164519,,0.0,-0.1,0.0,0.0,0.0,0.0
1352381602389804158,367,1352381602389804158,,0.0,0.0,0.0,0.0,0.0,0.0
1352381603461260774,368,1352381603461260774,,0.0,-0.1,0.0,0.0,0.0,0.0
1352381603630258834,369,1352381603630258834,,0.0,-0.1,0.0,0.0,0.0,0.0
1352381603941933359,370,1352381603941933359,,0.0,0.0,0.0,0.0,0.0,0.0
1352381604902080423,371,1352381604902080423,,0.0,0.0,0.0,0.0,0.0,0.0
1352381606430190838,372,1352381606430190838,,0.0,0.0,0.0,0.0,0.0,0.0
1352381607550165738,373,1352381607550165738,,0.0,-0.1,0.0,0.0,0.0,0.0
1352381607733951217,374,1352381607733951217,,0.0,-0.1,0.0,0.0,0.0,0.0
1352381608094585879,375,1352381608094585879,,0.0,0.0,0.0,0.0,0.0,0.0
1352381609416374507,376,1352381609416374507,,0.0,0.0,0.0,0.0,0.0,-0.2
1352381610142071199,377,1352381610142071199,,0.0,0.0,0.0,0.0,0.0,0.0
1352381610475013111,378,1352381610475013111,,0.0,-0.1,0.0,0.0,0.0,0.0
1352381611125868970,379,1352381611125868970,,0.0,0.0,0.0,0.0,0.0,0.0
1352381612259316072,380,1352381612259316072,,0.0,0.0,0.0,0.0,0.0,0.0
1352381613014166100,381,1352381613014166100,,0.0,-0.1,0.0,0.0,0.0,0.0
1352381613191957181,382,1352381613191957181,,0.0,-0.1,0.0,0.0,0.0,0.0
1352381613382037658,383,1352381613382037658,,0.0,-0.1,0.0,0.0,0.0,0.0
1352381613528666673,384,1352381613528666673,,0.0,-0.1,0.0,0.0,0.0,0.0
1352381613798061132,385,1352381613798061132,,0.0,-0.1,0.0,0.0,0.0,0.0
1352381614112178691,386,1352381614112178691,,0.0,0.0,0.0,0.0,0.0,0.0
1352381614790011288,387,1352381614790011288,,0.0,0.0,0.0,0.0,0.0,0.0
1352381616410232473,388,1352381616410232473,,0.0,-0.1,0.0,0.0,0.0,0.0
1352381616566123759,389,1352381616566123759,,0.0,-0.1,0.0,0.0,0.0,0.0
1352381616726238972,390,1352381616726238972,,0.0,-0.1,0.0,0.0,0.0,0.0
1352381616895727009,391,1352381616895727009,,0.0,-0.1,0.0,0.0,0.0,0.0
1352381617054857468,392,1352381617054857468,,0.0,-0.1,0.0,0.0,0.0,0.0
1352381617248125133,393,1352381617248125133,,0.0,-0.1,0.0,0.0,0.0,0.0
1352381617808640857,394,1352381617808640857,,0.0,-0.1,0.0,0.0,0.0,0.0
1352381618374020426,395,1352381618374020426,,0.0,0.0,0.0,0.0,0.0,0.0
1352381618990136100,396,1352381618990136100,,0.0,0.0,0.0,0.0,0.0,0.0
1352381620223926063,397,1352381620223926063,,0.0,0.0,0.0,0.0,0.0,0.0
1352381620946569165,398,1352381620946569165,,0.0,-0.1,0.0,0.0,0.0,0.0
1352381621102047262,399,1352381621102047262,,0.0,-0.1,0.0,0.0,0.0,0.0
1352381621270144450,400,1352381621270144450,,0.0,-0.1,0.0,0.0,0.0,0.0
1352381621453858596,401,1352381621453858596,,0.0,-0.1,0.0,0.0,0.0,0.0
1352381622173995206,402,1352381622173995206,,0.0,0.0,0.0,0.0,0.0,0.0
1352381622854056691,403,1352381622854056691,,0.0,-0.1,0.0,0.0,0.0,0.0
1352381623054082112,404,1352381623054082112,,0.0,-0.1,0.0,0.0,0.0,0.0
1352381623309206528,405,1352381623309206528,,0.0,-0.1,0.0,0.0,0.0,0.0
1352381623830354906,406,1352381623830354906,,0.1,0.0,0.0,0.0,0.0,0.0
1352381624030779611,407,1352381624030779611,,0.0,0.0,0.0,0.0,0.0,0.0
1352381624294445913,408,1352381624294445913,,0.0,0.1,0.0,0.0,0.0,0.0
1352381624582112361,409,1352381624582112361,,0.1,0.0,0.0,0.0,0.0,0.0
1352381624821910091,410,1352381624821910091,,0.0,-0.1,0.0,0.0,0.0,0.0
1352381625009164625,411,1352381625009164625,,0.1,0.0,0.0,0.0,0.0,0.0
1352381625894167693,412,1352381625894167693,,0.0,-0.1,0.0,0.0,0.0,0.0
1352381626261644836,413,1352381626261644836,,0.0,0.0,0.0,0.0,0.0,0.0
1352381627637914843,414,1352381627637914843,,-0.1,0.0,0.0,0.0,0.0,0.0
1352381628677989776,415,1352381628677989776,,0.0,0.0,0.0,0.0,0.0,0.0
1352381629382011847,416,1352381629382011847,,0.0,0.0,0.0,0.0,0.0,0.0
1352381629646408981,417,1352381629646408981,,0.0,-0.1,0.0,0.0,0.0,0.0
1352381629837858479,418,1352381629837858479,,0.0,-0.1,0.0,0.0,0.0,0.0
1352381630022005783,419,1352381630022005783,,0.0,-0.1,0.0,0.0,0.0,0.0
1352381630158007130,420,1352381630158007130,,0.0,-0.1,0.0,0.0,0.0,0.0
1352381630317950581,421,1352381630317950581,,0.0,-0.1,0.0,0.0,0.0,0.0
1352381630488374699,422,1352381630488374699,,0.0,-0.1,0.0,0.0,0.0,0.0
1352381630581705061,423,1352381630581705061,,0.0,0.0,0.0,0.0,0.0,0.0
1352381630765917750,424,1352381630765917750,,0.0,-0.1,0.0,0.0,0.0,0.0
1352381630947177969,425,1352381630947177969,,0.0,-0.1,0.0,0.0,0.0,0.0
1352381631109781413,426,1352381631109781413,,0.0,-0.1,0.0,0.0,0.0,0.0
1352381631279022797,427,1352381631279022797,,0.0,-0.1,0.0,0.0,0.0,0.0
1352381631439811316,428,1352381631439811316,,0.0,-0.1,0.0,0.0,0.0,0.0
1352381631629991940,429,1352381631629991940,,0.0,-0.1,0.0,0.0,0.0,0.0
1352381632342247897,430,1352381632342247897,,0.0,0.1,0.0,0.0,0.0,0.0
1352381632806964020,431,1352381632806964020,,0.0,-0.1,0.0,0.0,0.0,0.0
1352381633198025215,432,1352381633198025215,,0.0,-0.1,0.0,0.0,0.0,0.0
1352381633374254966,433,1352381633374254966,,0.1,0.0,0.0,0.0,0.0,0.0
1352381633853708005,434,1352381633853708005,,0.0,0.0,0.0,0.0,0.0,0.0
1352381634629889130,435,1352381634629889130,,0.0,0.0,0.0,0.0,0.0,0.0
1352381635854053068,436,1352381635854053068,,0.0,-0.1,0.0,0.0,0.0,0.0
1352381636029721619,437,1352381636029721619,,0.0,-0.1,0.0,0.0,0.0,0.0
1352381636197807635,438,1352381636197807635,,0.0,-0.1,0.0,0.0,0.0,0.0
1352381636386507530,439,1352381636386507530,,0.0,-0.1,0.0,0.0,0.0,0.0
1352381636673824012,440,1352381636673824012,,0.0,-0.1,0.0,0.0,0.0,0.0
1352381637286124134,441,1352381637286124134,,0.0,0.0,0.0,0.0,0.0,0.0
1352381638941627742,442,1352381638941627742,,0.0,0.0,0.0,0.0,0.0,0.0
1352381639157756760,443,1352381639157756760,,0.0,-0.1,0.0,0.0,0.0,0.0
1352381639333921300,444,1352381639333921300,,0.0,-0.1,0.0,0.0,0.0,0.0
1352381639508841277,445,1352381639508841277,,0.0,-0.1,0.0,0.0,0.0,0.0
1352381639662055650,446,1352381639662055650,,0.0,-0.1,0.0,0.0,0.0,0.0
1352381639829937137,447,1352381639829937137,,0.0,-0.1,0.0,0.0,0.0,0.0
1352381639997294522,448,1352381639997294522,,0.0,-0.1,0.0,0.0,0.0,0.0
1352381640149895803,449,1352381640149895803,,0.0,-0.1,0.0,0.0,0.0,0.0
1352381641998376551,450,1352381641998376551,,0.0,-0.1,0.0,0.0,0.0,0.0
1352381642141982136,451,1352381642141982136,,0.0,-0.1,0.0,0.0,0.0,0.0
1352381642293759657,452,1352381642293759657,,0.0,-0.1,0.0,0.0,0.0,0.0
1352381642472211275,453,1352381642472211275,,0.0,-0.1,0.0,0.0,0.0,0.0
1352381642638465260,454,1352381642638465260,,0.0,-0.1,0.0,0.0,0.0,0.0
1352381642813703194,455,1352381642813703194,,0.0,-0.1,0.0,0.0,0.0,0.0
1352381642998390560,456,1352381642998390560,,0.0,-0.1,0.0,0.0,0.0,0.0
1352381643189883077,457,1352381643189883077,,0.0,-0.1,0.0,0.0,0.0,0.0
1352381643381869605,458,1352381643381869605,,0.0,-0.1,0.0,0.0,0.0,0.0
1352381643581709005,459,1352381643581709005,,0.0,-0.1,0.0,0.0,0.0,0.0
1352381643773953811,460,1352381643773953811,,0.0,-0.1,0.0,0.0,0.0,0.0
1352381643973844154,461,1352381643973844154,,0.0,-0.1,0.0,0.0,0.0,0.0
1352381644557891231,462,1352381644557891231,,0.0,-0.1,0.0,0.0,0.0,0.0
1352381644773583375,463,1352381644773583375,,0.0,-0.1,0.0,0.0,0.0,0.0
1352381645637795166,464,1352381645637795166,,0.0,-0.1,0.0,0.0,0.0,0.0
1352381645807342140,465,1352381645807342140,,0.0,-0.1,0.0,0.0,0.0,0.0
1352381645973682472,466,1352381645973682472,,0.0,-0.1,0.0,0.0,0.0,0.0
1352381646149874880,467,1352381646149874880,,0.0,-0.1,0.0,0.0,0.0,0.0
1352381646333874851,468,1352381646333874851,,0.0,-0.1,0.0,0.0,0.0,0.0
1352381646517697217,469,1352381646517697217,,0.0,-0.1,0.0,0.0,0.0,0.0
1352381646686001804,470,1352381646686001804,,0.0,-0.1,0.0,0.0,0.0,0.0
1352381646877830920,471,1352381646877830920,,0.0,-0.1,0.0,0.0,0.0,0.0
1352381647045760523,472,1352381647045760523,,0.0,-0.1,0.0,0.0,0.0,0.0
1352381651029690711,473,1352381651029690711,,0.0,-0.1,0.0,0.0,0.0,0.0
1352381651350949732,474,1352381651350949732,,0.0,-0.1,0.0,0.0,0.0,0.0
1352381651470213673,475,1352381651470213673,,0.0,-0.1,0.0,0.0,0.0,0.0
1352381651630577869,476,1352381651630577869,,0.0,-0.1,0.0,0.0,0.0,0.0
1352381651773585190,477,1352381651773585190,,0.0,-0.1,0.0,0.0,0.0,0.0
1352381651941770378,478,1352381651941770378,,0.0,-0.1,0.0,0.0,0.0,0.0
1352381652109768642,479,1352381652109768642,,0.0,-0.1,0.0,0.0,0.0,0.0
1352381652303620447,480,1352381652303620447,,0.0,-0.1,0.0,0.0,0.0,0.0
1352381652493685924,481,1352381652493685924,,0.0,-0.1,0.0,0.0,0.0,0.0
1352381652693619027,482,1352381652693619027,,0.0,-0.1,0.0,0.0,0.0,0.0
1352381652893923315,483,1352381652893923315,,0.0,-0.1,0.0,0.0,0.0,0.0
1352381653077885065,484,1352381653077885065,,0.0,-0.1,0.0,0.0,0.0,0.0
