\relax 
\citation{Weiss:2012fk}
\citation{Mahony:2012uq}
\citation{Mellinger:2011vn}
\citation{Pounds:2009fk}
\citation{6386045}
\citation{Corke11a}
\citation{Klein:2006fk}
\citation{Sa:2012ys}
\citation{Sa:2012kx}
\citation{Bristeau:2011uq}
\citation{Bills:2011fk}
\citation{engel12iros}
\citation{Dijkshoorn:2011fk}
\@writefile{toc}{\contentsline {section}{\numberline {I}INTRODUCTION}{1}}
\newlabel{sec:intro}{{I}{1}}
\newlabel{drone}{{I}{1}}
\@writefile{lof}{\contentsline {figure}{\numberline {1}{\ignorespaces AR.Drone platform. It has a front and a downward camera. The ultrasonic sensor estimates altitude. Red, green and blue denotes $x$,$y$ and $z$ axis used in this paper. $\phi $,$\theta $ and $\psi $ is rotation along $x$,$y$ and $z$ axis respectively and is governed right-hand rule. Accurate lateral velocity estimation based on aerodynamics and optical flow is a key feature of this product and allows it to fly stably.}}{1}}
\@writefile{toc}{\contentsline {subsection}{\numberline {I-A}Related work}{1}}
\newlabel{sec:related_work}{{I-A}{1}}
\citation{H08}
\citation{Shen:2011kx}
\citation{Dryanovski:2011fk}
\citation{Mellinger:2012bh}
\citation{Mellinger:2011vn}
\citation{Huang:2011fk}
\citation{Lee:2011fk}
\citation{nuetzi11fusion}
\citation{engel12iros}
\citation{engel12iros}
\citation{engel12iros}
\@writefile{toc}{\contentsline {section}{\numberline {II}Methodology}{2}}
\newlabel{sec:methods}{{II}{2}}
\@writefile{toc}{\contentsline {subsection}{\numberline {II-A}Monocular SLAM system}{2}}
\@writefile{toc}{\contentsline {subsection}{\numberline {II-B}Scale estimation}{2}}
\newlabel{subsec:scale estimation}{{II-B}{2}}
\citation{engel12iros}
\@writefile{lof}{\contentsline {figure}{\numberline {2}{\ignorespaces  Yaw angle comparison between PTAM and IMU. Yaw angle estimation from IMU clearly shows drifting quickly, however PTAM doesn't. Quadrotor is landed $\sim $110\unhbox \voidb@x \hbox {$\rm  \tmspace  +\thinmuskip {.1667em}s$}.}}{3}}
\newlabel{fig:yaw comparison}{{2}{3}}
\@writefile{lof}{\contentsline {figure}{\numberline {3}{\ignorespaces Scale estimation for PTAM. The dash line denotes the original $z$ from PTAM, while bold solid line is the metric form $z$ from PTAM with estimated scale $\lambda $. The thin solid line is the altitude measure from a sonar sensor. This plot implies that the scale is accurately recovered since the metric measurement and the scale recovered estimation are close.}}{3}}
\newlabel{fig:scalerecovery}{{3}{3}}
\newlabel{eq:scaleOptimisation}{{1}{3}}
\@writefile{toc}{\contentsline {subsection}{\numberline {II-C}State estimation}{3}}
\@writefile{toc}{\contentsline {subsubsection}{\numberline {II-C.1}States}{3}}
\@writefile{toc}{\contentsline {subsubsection}{\numberline {II-C.2}Process model}{3}}
\@writefile{toc}{\contentsline {subsubsection}{\numberline {II-C.3}Measurement model}{3}}
\newlabel{eq:line_model}{{4}{3}}
\@writefile{toc}{\contentsline {subsection}{\numberline {II-D}Control}{3}}
\@writefile{toc}{\contentsline {section}{\numberline {III}Experiments and results}{3}}
\newlabel{sec:results}{{III}{3}}
\@writefile{toc}{\contentsline {subsection}{\numberline {III-A}Implementation}{3}}
\@writefile{lof}{\contentsline {figure}{\numberline {4}{\ignorespaces  Dotted line presents altitude measure and solid line is estimated dynamics model. We use MATLAB continous-time transfer function model in order to estimate the model which fits 87.52\%. }}{4}}
\newlabel{sys_id_height}{{4}{4}}
\@writefile{lof}{\contentsline {figure}{\numberline {5}{\ignorespaces  System overview. AR.Drone and a offboard computer communicate through WiFi network. Each box denotes \texttt  {ROS} nodes running on a remote computer.}}{4}}
\newlabel{sys_overview}{{5}{4}}
\@writefile{toc}{\contentsline {subsection}{\numberline {III-B}Controller performance evaluation}{4}}
\@writefile{lof}{\contentsline {figure}{\numberline {6}{\ignorespaces Controller performance evaluation with ground truth data while hovering. Note that top two rows and the bottom have the different scale in vertical axis. The reason why x and y are started from non-zero state is 0 second means when vSLAM is initialized after taking off. }}{4}}
\newlabel{ctrl_perf}{{6}{4}}
\@writefile{lot}{\contentsline {table}{\numberline {I}{\ignorespaces Controller performance results: Time period = 0s $\sim $ 90s. }}{4}}
\newlabel{tbl:ctrl_perf}{{I}{4}}
\@writefile{lof}{\contentsline {figure}{\numberline {7}{\ignorespaces Top two rows are translation state estimation and the third row is raw ultrasonic height measurement with ground truth data. The bottom three rows are their errors while hovering. Note that wireless connection is lost around from 30s to 35s and it introduces inaccurate state estimation. Although it affects on control performance and state estimation, the quadrotor recovers its state tracking after re-establishing the connection.}}{4}}
\newlabel{trans}{{7}{4}}
\bibstyle{ieeetr}
\bibdata{./bibs/AIM2013.bib}
\bibcite{Weiss:2012fk}{1}
\bibcite{Mahony:2012uq}{2}
\bibcite{Mellinger:2011vn}{3}
\bibcite{Pounds:2009fk}{4}
\bibcite{6386045}{5}
\bibcite{Corke11a}{6}
\bibcite{Klein:2006fk}{7}
\bibcite{Sa:2012ys}{8}
\bibcite{Sa:2012kx}{9}
\bibcite{Bristeau:2011uq}{10}
\@writefile{lof}{\contentsline {figure}{\numberline {8}{\ignorespaces  Top two rows are orientation state estimation from AR.Drone onboard and the third row is drift-free yaw estimation from PTAM. The bottom three rows are their errors while hovering. Roll and pitch angle estimation is accurate and yaw angle estimation is getting more accurate as more features are observed.}}{5}}
\newlabel{ori}{{8}{5}}
\@writefile{lot}{\contentsline {table}{\numberline {II}{\ignorespaces State estimation accuracy results:Time period = 0s, 90s}}{5}}
\newlabel{tbl:esti_perf}{{II}{5}}
\@writefile{toc}{\contentsline {subsection}{\numberline {III-C}Estimator accuracy performance evaluation}{5}}
\newlabel{subset:estimator evaluation}{{III-C}{5}}
\@writefile{toc}{\contentsline {section}{\numberline {IV}Conclusions}{5}}
\newlabel{sec:conclusion}{{IV}{5}}
\@writefile{toc}{\contentsline {section}{References}{5}}
\bibcite{Bills:2011fk}{11}
\bibcite{engel12iros}{12}
\bibcite{Dijkshoorn:2011fk}{13}
\bibcite{H08}{14}
\bibcite{Shen:2011kx}{15}
\bibcite{Dryanovski:2011fk}{16}
\bibcite{Mellinger:2012bh}{17}
\bibcite{Huang:2011fk}{18}
\bibcite{Lee:2011fk}{19}
\bibcite{nuetzi11fusion}{20}
\@writefile{lof}{\contentsline {figure}{\numberline {9}{\ignorespaces Top and bottom rows show indoor and outdoor experiments respectively. The first column is images of the environment where the MAV is flown. The second column shows 3D points reconstruction and position estimation from vSLAM. The third column shows the corresponding images from MAV's forward camera with feature extraction. The last column shows the top-view x,y position estimation while hovering. These clearly show that manoeuvring outdoor is more challenge than indoor environments due to wind gusts or dynamic features.}}{6}}
\newlabel{Hovering_Indoor_outdoor}{{9}{6}}
\newlabel{WPF}{{IV}{6}}
\@writefile{lof}{\contentsline {figure}{\numberline {10}{\ignorespaces }}{6}}
